%YAML 1.1
%TAG !u! tag:unity3d.com,2011:
--- !u!21 &2100000
Material:
  serializedVersion: 6
  m_ObjectHideFlags: 0
  m_PrefabParentObject: {fileID: 0}
  m_PrefabInternal: {fileID: 0}
  m_Name: Agua
  m_Shader: {fileID: 4800000, guid: 717d064fa81dbd8469a021ffe8b028b9, type: 3}
  m_ShaderKeywords: 
  m_LightmapFlags: 5
  m_CustomRenderQueue: 3100
  stringTagMap: {}
  m_SavedProperties:
    serializedVersion: 2
    m_TexEnvs:
      data:
        first:
          name: _MainTex
        second:
          m_Texture: {fileID: 0}
          m_Scale: {x: 5, y: 5}
          m_Offset: {x: 0, y: 0}
      data:
        first:
          name: _BumpMap
        second:
          m_Texture: {fileID: 2800000, guid: 6bb196e8814587f4380f68c999a2a5fe, type: 3}
          m_Scale: {x: 0.2, y: 0.2}
          m_Offset: {x: 0, y: 0}
      data:
        first:
          name: _MainTex2
        second:
          m_Texture: {fileID: 2800000, guid: 6e88ea04866f9fe45b6f102318c5cb8a, type: 3}
          m_Scale: {x: 3, y: 3}
          m_Offset: {x: 0, y: 0}
      data:
        first:
          name: _BumpMap2
        second:
          m_Texture: {fileID: 2800000, guid: 6bb196e8814587f4380f68c999a2a5fe, type: 3}
          m_Scale: {x: 0.1, y: 0.1}
          m_Offset: {x: 0, y: 0}
      data:
        first:
          name: _ReflectionTex
        second:
          m_Texture: {fileID: 0}
          m_Scale: {x: 1, y: 1}
          m_Offset: {x: 0, y: 0}
      data:
        first:
          name: _Illum
        second:
          m_Texture: {fileID: 0}
          m_Scale: {x: 1, y: 1}
          m_Offset: {x: 0, y: 0}
    m_Floats:
      data:
        first:
          name: _Shininess
        second: 88.15
      data:
        first:
          name: _Amplitude
        second: 0.046428576
      data:
        first:
          name: _Length
        second: 1.7857132
      data:
        first:
          name: _Frequency
        second: 46.42857
      data:
        first:
          name: _BumpAmt
        second: 8.9
      data:
        first:
          name: _BumpAmt2
        second: 18.6
      data:
        first:
          name: _ReflectionAlpha
        second: 0.7
      data:
        first:
          name: _Stencil
        second: 0
      data:
        first:
          name: _StencilComp
        second: 12
      data:
        first:
          name: _StencilOp
        second: 0
      data:
        first:
          name: _StencilReadMask
        second: 0
      data:
        first:
          name: _StencilWriteMask
        second: 0
      data:
        first:
          name: _ColorMask
        second: 0
      data:
        first:
          name: _EmissionLM
        second: 0
      data:
        first:
          name: _Speed
        second: 3.35
      data:
        first:
          name: _Tile
        second: 5.78
      data:
        first:
          name: _ColorStrength
        second: 1
      data:
        first:
          name: _Velocity
        second: 121.42857
    m_Colors:
      data:
        first:
          name: _Color
        second: {r: 0.44588998, g: 0.534, b: 0.51814014, a: 1}
      data:
        first:
          name: _SpecColor
        second: {r: 1, g: 1, b: 1, a: 1}
